<?xml version="1.0" encoding="UTF-8" standalone="no"?>
<svg
   xmlns:dc="http://purl.org/dc/elements/1.1/"
   xmlns:cc="http://creativecommons.org/ns#"
   xmlns:rdf="http://www.w3.org/1999/02/22-rdf-syntax-ns#"
   xmlns:svg="http://www.w3.org/2000/svg"
   xmlns="http://www.w3.org/2000/svg"
   xmlns:xlink="http://www.w3.org/1999/xlink"
   xmlns:sodipodi="http://sodipodi.sourceforge.net/DTD/sodipodi-0.dtd"
   xmlns:inkscape="http://www.inkscape.org/namespaces/inkscape"
   sodipodi:docname="tracing-f03.svg"
   inkscape:version="1.0beta1 (a4ee55bc41, 2019-11-15)"
   sodipodi:version="0.32"
   id="svg3212"
   viewBox="0 0 300 105"
   height="105"
   width="300"
   version="1.1">
  <defs
     id="defs3" />
  <sodipodi:namedview
     inkscape:window-maximized="0"
     inkscape:window-y="27"
     inkscape:window-x="54"
     inkscape:window-height="1053"
     inkscape:window-width="1866"
     inkscape:guide-bbox="true"
     showguides="true"
     units="px"
     showgrid="false"
     inkscape:document-rotation="0"
     inkscape:current-layer="layer1"
     inkscape:document-units="px"
     inkscape:cy="52.5"
     inkscape:cx="160"
     inkscape:zoom="1.4"
     inkscape:pageshadow="2"
     inkscape:pageopacity="0.0"
     borderopacity="1.0"
     bordercolor="#666666"
     pagecolor="#ffffff"
     id="base"
     inkscape:lockguides="true" />
  <metadata
     id="metadata4">
    <rdf:RDF>
      <cc:Work
         rdf:about="">
        <dc:format>image/svg+xml</dc:format>
        <dc:type
           rdf:resource="http://purl.org/dc/dcmitype/StillImage" />
        <dc:title />
      </cc:Work>
    </rdf:RDF>
  </metadata>
  <g
     id="layer1"
     inkscape:groupmode="layer"
     inkscape:label="Layer 1">
    <text
       id="text1492"
       y="97.154671"
       x="62.955002"
       style="font-style:normal;font-variant:normal;font-weight:normal;font-stretch:normal;line-height:0%;font-family:'Liberation Sans',Arial,sans-serif;writing-mode:lr-tb;text-anchor:middle;display:block;fill:#000000;fill-opacity:1;stroke:none;stroke-width:1pt;stroke-linecap:butt;stroke-linejoin:miter;stroke-opacity:1"
       xml:space="preserve"><tspan
         y="97.154671"
         x="62.955002"
         id="tspan1493"
         sodipodi:role="line"
         style="font-size:6px;line-height:1.1">Original Image</tspan></text>
    <text
       id="text1495"
       y="97.37867"
       x="151.3282"
       style="font-style:normal;font-variant:normal;font-weight:normal;font-stretch:normal;line-height:0%;font-family:'Liberation Sans',Arial,sans-serif;writing-mode:lr-tb;text-anchor:middle;display:block;fill:#000000;fill-opacity:1;stroke:none;stroke-width:1pt;stroke-linecap:butt;stroke-linejoin:miter;stroke-opacity:1"
       xml:space="preserve"><tspan
         y="97.37867"
         x="151.3282"
         id="tspan1496"
         sodipodi:role="line"
         style="font-size:6px;line-height:1.1">Edge Detected</tspan><tspan
         y="103.37867"
         x="151.3282"
         id="tspan1498"
         sodipodi:role="line"
         style="font-size:6px;line-height:1.1">Fill, no Stroke</tspan></text>
    <text
       id="text1500"
       y="97.37867"
       x="238.3732"
       style="font-style:normal;font-variant:normal;font-weight:normal;font-stretch:normal;line-height:0%;font-family:'Liberation Sans',Arial,sans-serif;writing-mode:lr-tb;text-anchor:middle;display:block;fill:#000000;fill-opacity:1;stroke:none;stroke-width:1pt;stroke-linecap:butt;stroke-linejoin:miter;stroke-opacity:1"
       xml:space="preserve"><tspan
         id="tspan1501"
         sodipodi:role="line"
         y="97.37867"
         x="238.3732"
         style="font-size:6px;line-height:1.1">Edge Detected</tspan><tspan
         id="tspan1503"
         sodipodi:role="line"
         y="103.37867"
         x="238.3732"
         style="font-size:6px;line-height:1.1">Stroke, no Fill</tspan></text>
    <image
       sodipodi:absref="/home/gellert/workspace/inkscape/documentation/tutorials/tracing/tux.png"
       xlink:href="tux.png"
       y="3.6132813e-05"
       x="24.47234"
       id="image1508"
       height="91.143097"
       width="76.965286" />
    <path
       id="path4003"
       d="m 132.6556,89.1011 c -1.22077,-0.5539 -3.49935,-1.36272 -5.06351,-1.79739 -9.1856,-2.55259 -12.02514,-3.42764 -12.59117,-3.88017 -0.82809,-0.66204 -0.79309,-3.16935 0.0792,-5.67571 0.4703,-1.35128 0.61045,-3.26392 0.43101,-5.8819 -0.23881,-3.48422 -0.15582,-3.98958 0.81451,-4.95991 0.78355,-0.78356 1.70784,-1.08042 3.36394,-1.08042 3.12351,0 4.04585,-1.13545 4.04585,-4.98062 0,-2.43935 0.34592,-3.58509 2.09689,-6.94534 1.15329,-2.21325 2.4354,-5.16337 2.84913,-6.55583 1.28593,-4.32793 2.29132,-6.29793 4.60249,-9.01823 1.22794,-1.44531 2.91604,-3.71264 3.75134,-5.0385 l 1.51873,-2.41066 -0.2668,-9.83335 c -0.25243,-9.30324 -0.20664,-9.9816 0.84939,-12.58348 2.02872,-4.99844 5.8026,-7.44686 11.47826,-7.44686 6.47536,0 11.63592,3.13015 14.05778,8.52678 1.10584,2.46414 1.40383,4.10313 1.75275,9.64058 0.41692,6.61651 0.44039,6.71118 2.83544,11.44091 1.32827,2.62306 3.53912,6.05375 4.913,7.62377 2.84028,3.24574 3.81613,5.00621 5.72748,10.33259 1.53205,4.26942 2.16299,10.33159 1.41124,13.55948 -0.37967,1.6302 -0.33513,2.34773 0.18856,3.0381 0.37708,0.49711 0.69285,1.53846 0.70172,2.31411 0.0219,1.92035 1.26666,3.67303 3.89074,5.47845 1.73466,1.19347 2.20156,1.82293 2.20156,2.96802 0,2.46348 -0.48163,2.99671 -4.94076,5.4701 -2.37522,1.31748 -5.36828,3.39407 -6.65123,4.61465 -3.43301,3.26607 -5.02709,4.1061 -7.79609,4.10826 -2.71802,0.0021 -5.83701,-1.3672 -6.81985,-2.9941 -0.60506,-1.00156 -1.06577,-1.05481 -9.12553,-1.05481 h -8.4883 l -1.83281,1.51075 c -3.37908,2.78533 -6.22637,3.21613 -9.98499,1.51073 z m 8.75906,-3.21226 2.23891,-1.83462 9.53544,-0.0044 9.53545,-0.0044 0.0702,-4.08168 0.0702,-4.08167 -1.08291,0.98543 c -3.68428,3.35266 -9.6741,5.43574 -14.47074,5.03249 -1.54846,-0.13018 -3.24043,-0.41676 -3.75993,-0.63685 -0.78476,-0.33247 -0.88985,-0.22783 -0.62122,0.61856 0.21041,0.66292 -0.0438,1.44129 -0.72785,2.22858 -0.98085,1.12891 -1.0318,1.13876 -0.76148,0.14729 0.15934,-0.58441 -0.0448,-1.70736 -0.45367,-2.49544 -0.40886,-0.78809 -0.62438,-1.62544 -0.47892,-1.86079 0.43148,-0.69815 -0.91765,-3.24014 -1.9847,-3.7395 -0.54337,-0.25429 -2.2291,-2.51307 -3.74606,-5.01951 -3.51503,-5.8078 -6.00922,-8.38936 -7.75065,-8.02215 -0.69623,0.14681 -1.72475,0.98413 -2.2856,1.86071 -0.83416,1.30376 -1.46535,1.65753 -3.46855,1.94407 -1.34685,0.19266 -2.77122,0.47401 -3.16526,0.62521 -1.20808,0.46359 -1.66501,2.54961 -1.24172,5.66884 0.29168,2.14941 0.19173,3.69353 -0.36602,5.65413 -0.52866,1.85838 -0.60435,2.86013 -0.24338,3.2211 0.28815,0.28815 3.58575,1.29546 7.32801,2.23849 3.74225,0.94302 7.81364,2.18513 9.04753,2.76025 3.21926,1.5005 5.93701,1.12791 8.78291,-1.20409 z m -4.76726,-0.01238 c 0,-0.11174 0.7975,-0.6737 1.77223,-1.2488 1.38785,-0.81885 1.77223,-0.88847 1.77223,-0.321 0,0.39854 -0.44074,0.96051 -0.97942,1.2488 -0.96546,0.51669 -2.56504,0.71687 -2.56504,0.321 z m 38.25215,-0.59433 c 1.83018,-1.55258 4.85237,-3.62584 6.71597,-4.60723 3.69374,-1.94516 5.66694,-3.52354 5.66694,-4.53305 0,-0.35582 -0.9907,-1.32856 -2.20156,-2.16165 -2.47805,-1.70494 -3.87464,-3.55473 -3.87464,-5.13197 0,-0.58509 -0.25226,-1.53514 -0.56056,-2.11122 -0.535,-0.99964 -0.64778,-0.94616 -2.47257,1.17258 -1.90477,2.2116 -1.92483,2.21999 -5.30721,2.21999 -2.95725,0 -3.52006,-0.15419 -4.36317,-1.19538 -0.53238,-0.65747 -0.96796,-1.93975 -0.96796,-2.84952 0,-3.45504 -2.73108,-3.01731 -3.12233,0.50045 -0.0929,0.83547 -0.39681,1.40512 -0.6753,1.26587 -0.6075,-0.30375 -0.35684,-3.549 0.33987,-4.40017 0.27126,-0.3314 0.97399,-0.67318 1.56163,-0.75952 3.17624,-0.46669 1.93717,-12.99183 -1.84019,-18.60162 -0.6701,-0.99516 -1.49644,-2.72082 -1.83631,-3.83479 -0.33987,-1.11397 -1.43588,-3.62041 -2.43557,-5.56986 -1.43565,-2.7996 -1.84826,-4.2361 -1.96345,-6.83573 -0.0802,-1.8102 -0.18092,-3.63307 -0.22379,-4.0508 -0.0429,-0.41774 0.0834,-1.21525 0.28064,-1.77223 0.19723,-0.55699 0.01,-0.41468 -0.41604,0.31623 -1.37483,2.35858 -4.01694,2.35564 -4.95882,-0.0055 -0.30243,-0.75814 -0.6283,-1.05306 -0.76294,-0.69046 -0.30565,0.82316 -4.0215,0.82735 -4.52968,0.0051 -0.26178,-0.42356 -0.48395,-0.21762 -0.68285,0.63294 -0.40964,1.75176 -2.64166,2.00024 -3.75027,0.41749 -0.44466,-0.63485 -0.80123,-0.93269 -0.79238,-0.66185 0.009,0.27084 0.33604,0.91476 0.72707,1.43094 0.51811,0.68392 0.57937,1.28465 0.22583,2.21453 -0.50091,1.31751 -0.12923,1.85301 2.23906,3.22592 1.29861,0.75281 0.67007,1.17733 -0.67631,0.45677 -2.02342,-1.0829 -1.56278,-0.16962 0.87675,1.7383 2.87717,2.25018 4.35818,2.21588 8.27077,-0.19157 1.38257,-0.8507 2.73819,-1.54673 3.0125,-1.54673 1.1063,0 0.34252,0.85473 -2.37548,2.65834 -4.10173,2.72183 -8.04425,2.60346 -10.40622,-0.31244 -0.87162,-1.07604 -0.87489,-1.07401 -0.88611,0.54819 -0.006,0.89551 -0.7946,3.06016 -1.752,4.81033 -0.95741,1.75016 -1.83162,4.12002 -1.94268,5.26635 -0.11106,1.14632 -0.70701,2.79355 -1.32434,3.66051 -2.49348,3.50178 -4.25483,8.30502 -4.49749,12.26483 l -0.23482,3.83176 4.62297,3.68663 c 2.54264,2.02765 4.96202,4.17068 5.37639,4.76229 1.15414,1.64777 0.93027,3.68343 -0.55671,5.06224 l -1.31012,1.21481 1.39239,1.09526 c 1.86083,1.46373 3.13924,1.72983 7.18478,1.49553 4.41984,-0.25598 7.58204,-1.78762 11.58703,-5.61227 l 3.11297,-2.9728 0.36012,2.61838 c 0.43637,3.17277 -0.16511,11.23062 -0.80862,10.83292 -1.00212,-0.61935 -0.38626,1.41459 0.78211,2.58294 1.02002,1.02002 1.74508,1.24286 4.04398,1.24286 2.66438,0 2.96357,-0.1378 6.12872,-2.82289 z M 141.20456,72.67527 c 0,-0.34188 -1.31018,-1.7529 -2.91152,-3.1356 -3.41897,-2.95218 -4.86738,-3.8754 -3.37319,-2.15008 0.58156,0.67152 1.58753,2.13237 2.2355,3.24634 1.86488,3.20608 2.57363,3.88555 3.36654,3.22749 0.37547,-0.31161 0.68267,-0.84628 0.68267,-1.18815 z m 35.74621,-6.9738 c 1.79913,-1.89409 2.11923,-2.58403 2.41602,-5.20728 0.18817,-1.66314 0.12157,-4.16306 -0.14799,-5.55538 -1.03198,-5.33037 -4.04939,-12.31935 -6.12099,-14.17756 -1.8981,-1.70258 -5.11265,-6.78659 -6.9024,-10.91658 -1.37361,-3.16972 -1.70065,-4.58373 -1.70876,-7.38822 -0.0172,-5.93558 -0.85931,-10.13195 -2.66144,-13.26178 -1.38093,-2.39831 -2.12525,-3.09636 -4.56728,-4.28331 -7.06479,-3.43386 -12.9721,-1.7826 -15.86761,4.43546 -0.8315,1.78565 -1.17241,3.38909 -1.13478,5.33738 0.0296,1.53171 0.16581,2.32921 0.30272,1.77222 0.41056,-1.67027 1.18821,-2.27857 2.91294,-2.27857 1.81775,0 4.26573,1.89109 4.39304,3.39368 0.0424,0.50066 0.0998,1.24904 0.1275,1.66306 0.0277,0.41402 0.44791,0.82933 0.9338,0.9229 0.61797,0.11901 0.79402,-0.06287 0.58587,-0.6053 -0.47285,-1.23222 0.74467,-4.20404 2.0811,-5.0797 1.56029,-1.02234 4.25399,-1.02741 5.70549,-0.01073 2.18765,1.53229 2.68379,3.34599 2.50414,9.15421 -0.16223,5.24505 -0.12362,5.4663 1.52345,8.73159 0.92943,1.8426 2.04876,4.5789 2.48739,6.08066 0.43863,1.50177 1.46233,3.7788 2.2749,5.06008 2.61764,4.12759 3.48615,8.16648 3.43982,15.99639 -0.0356,6.02369 0.08,7.07314 0.87595,7.9527 1.45116,1.60353 4.02277,0.92168 6.54712,-1.73592 z m -0.47045,-2.23884 c -0.18567,-0.18566 -0.33757,-0.57302 -0.33757,-0.8608 0,-0.31728 0.23584,-0.28738 0.59918,0.07596 0.32955,0.32955 0.48145,0.71691 0.33757,0.86079 -0.14389,0.14389 -0.41353,0.10971 -0.59918,-0.07595 z m 1.47666,-1.11353 c -0.21813,-0.35292 -0.25984,-0.77842 -0.0927,-0.94556 0.45317,-0.45316 0.94726,0.21333 0.7025,0.94761 -0.17151,0.51454 -0.29078,0.51414 -0.60979,-0.002 z m -16.2726,-31.17924 c -0.95907,-1.46371 -0.79598,-3.56008 0.28055,-3.60642 2.27777,-0.09805 4.32107,2.26001 3.66467,4.2292 -0.37767,1.13301 -3.07364,0.70744 -3.94522,-0.62278 z m 1.89243,-1.40486 c -0.36333,-0.36334 -0.59918,-0.39323 -0.59918,-0.07595 0,0.67587 0.59882,1.27468 0.93675,0.93675 0.14389,-0.14389 -0.008,-0.53125 -0.33757,-0.8608 z M 155.21359,9.78947 c -0.18566,-0.18566 -0.33757,-1.21102 -0.33757,-2.27857 0,-1.86733 0.0649,-1.94101 1.71023,-1.94101 0.94062,0 1.93752,0.28482 2.21531,0.63293 0.70013,0.87735 0.45607,2.89828 -0.41671,3.4506 -0.85192,0.53913 -2.68935,0.61796 -3.17126,0.13605 z m 2.19419,-2.22407 c 0,-0.26205 -0.22786,-0.47646 -0.50635,-0.47646 -0.2785,0 -0.50636,0.35523 -0.50636,0.78941 0,0.43417 0.22786,0.64858 0.50636,0.47646 0.27849,-0.17211 0.50635,-0.52735 0.50635,-0.78941 z m -25.2014,56.03653 c -1.4474,-1.6485 -1.49765,-1.86664 -1.25383,-5.44327 0.26127,-3.83254 0.7429,-5.3691 3.86604,-12.33391 0.99905,-2.22794 1.81923,-4.47846 1.82263,-5.00117 0.003,-0.5227 0.91761,-2.60147 2.03158,-4.61949 2.49099,-4.51256 2.66747,-5.56383 0.26397,-1.57242 -0.96879,1.60884 -2.6444,3.98794 -3.72358,5.2869 -2.38743,2.87364 -2.75642,3.55967 -4.44899,8.27163 -0.73311,2.04092 -2.10181,5.24311 -3.04154,7.11599 -2.11047,4.2061 -2.25529,5.92632 -0.47019,5.58508 0.95385,-0.18234 1.79742,0.29651 3.67104,2.08389 2.89319,2.75999 3.35319,2.98473 1.28287,0.62677 z m -3.66059,-4.94963 c 0,-1.84376 0.22104,-1.77695 0.69794,0.21098 0.19832,0.82664 0.12438,1.39246 -0.18194,1.39246 -0.2838,0 -0.516,-0.72155 -0.516,-1.60344 z m 12.50146,-30.17005 c -0.12736,-0.48736 -0.23157,-0.08861 -0.23157,0.88611 0,0.97473 0.10421,1.37348 0.23157,0.88611 0.12736,-0.48736 0.12736,-1.28486 0,-1.77222 z m -0.54947,-5.05296 c -0.16826,-0.16825 -0.28793,0.13081 -0.26595,0.66459 0.0243,0.58987 0.14428,0.70985 0.30592,0.30592 0.14627,-0.36553 0.12828,-0.80225 -0.04,-0.97051 z m 3.30034,-3.01067 c -0.44131,-0.75891 -0.54012,-0.78078 -0.55276,-0.12237 -0.0164,0.85273 0.51607,1.62052 0.87493,1.26166 0.11836,-0.11836 -0.0266,-0.63104 -0.32217,-1.13929 z m 11.78161,0.93845 c 0.14141,-0.22881 -0.18693,-0.79623 -0.72965,-1.26092 -0.92625,-0.79308 -0.98676,-0.78826 -0.98676,0.07847 0,1.40279 1.10833,2.16634 1.71641,1.18245 z m -9.5121,-2.48493 c -0.16825,-0.16826 -0.28793,0.1308 -0.26594,0.66458 0.0243,0.58987 0.14428,0.70985 0.30592,0.30592 0.14627,-0.36552 0.12828,-0.80225 -0.04,-0.9705 z m 10.79979,-1.43921 c -0.63537,-0.67633 -1.61024,-1.22968 -2.16638,-1.22968 -1.09846,0 -2.86312,1.35635 -2.86312,2.20066 0,0.28855 0.28482,0.1684 0.63294,-0.26702 1.42489,-1.78222 4.87944,-1.08353 4.97689,1.00658 0.0272,0.58292 0.1256,0.64319 0.30744,0.18827 0.1471,-0.36802 -0.25239,-1.22249 -0.88777,-1.89881 z m -12.94304,-0.21698 c 0.34215,0 0.9415,0.28482 1.33188,0.63294 0.60384,0.53845 0.6097,0.50066 0.0393,-0.25318 -0.36879,-0.48736 -1.05276,-0.88611 -1.51995,-0.88611 -0.90736,0 -2.06467,0.92851 -2.06467,1.65649 0,0.24268 0.35806,0.08318 0.79569,-0.35445 0.43763,-0.43763 1.07564,-0.79569 1.41778,-0.79569 z"
       inkscape:connector-curvature="0" />
    <path
       style="fill:none;stroke:#000000;stroke-width:0.375;stroke-miterlimit:4;stroke-opacity:1"
       id="path4004"
       d="m 219.70063,89.1011 c -1.22077,-0.5539 -3.49935,-1.36272 -5.06351,-1.79739 -9.1856,-2.55259 -12.02514,-3.42764 -12.59117,-3.88017 -0.82809,-0.66204 -0.79309,-3.16935 0.0792,-5.67571 0.4703,-1.35128 0.61045,-3.26392 0.43101,-5.8819 -0.23881,-3.48422 -0.15582,-3.98958 0.81451,-4.95991 0.78355,-0.78356 1.70784,-1.08042 3.36394,-1.08042 3.12351,0 4.04585,-1.13545 4.04585,-4.98062 0,-2.43935 0.34592,-3.58509 2.09689,-6.94534 1.15329,-2.21325 2.4354,-5.16337 2.84913,-6.55583 1.28593,-4.32793 2.29132,-6.29793 4.60249,-9.01823 1.22794,-1.44531 2.91604,-3.71264 3.75134,-5.0385 l 1.51873,-2.41066 -0.2668,-9.83335 c -0.25243,-9.30324 -0.20664,-9.9816 0.84939,-12.58348 2.02872,-4.99844 5.8026,-7.44686 11.47826,-7.44686 6.47536,0 11.63592,3.13015 14.05778,8.52678 1.10584,2.46414 1.40383,4.10313 1.75275,9.64058 0.41692,6.61651 0.44039,6.71118 2.83544,11.44091 1.32827,2.62306 3.53912,6.05375 4.913,7.62377 2.84028,3.24574 3.81613,5.00621 5.72748,10.33259 1.53205,4.26942 2.16299,10.33159 1.41124,13.55948 -0.37967,1.6302 -0.33513,2.34773 0.18856,3.0381 0.37708,0.49711 0.69285,1.53846 0.70172,2.31411 0.0219,1.92035 1.26666,3.67303 3.89074,5.47845 1.73466,1.19347 2.20156,1.82293 2.20156,2.96802 0,2.46348 -0.48163,2.99671 -4.94076,5.4701 -2.37522,1.31748 -5.36828,3.39407 -6.65123,4.61465 -3.43301,3.26607 -5.02709,4.1061 -7.79609,4.10826 -2.71802,0.0021 -5.83701,-1.3672 -6.81985,-2.9941 -0.60506,-1.00156 -1.06577,-1.05481 -9.12553,-1.05481 h -8.4883 l -1.83281,1.51075 c -3.37908,2.78533 -6.22637,3.21613 -9.98499,1.51073 z m 8.75906,-3.21226 2.23891,-1.83462 9.53544,-0.0044 9.53545,-0.0044 0.0702,-4.08168 0.0702,-4.08167 -1.08291,0.98543 c -3.68428,3.35266 -9.6741,5.43574 -14.47074,5.03249 -1.54846,-0.13018 -3.24043,-0.41676 -3.75993,-0.63685 -0.78476,-0.33247 -0.88985,-0.22783 -0.62122,0.61856 0.21041,0.66292 -0.0438,1.44129 -0.72785,2.22858 -0.98085,1.12891 -1.0318,1.13876 -0.76148,0.14729 0.15934,-0.58441 -0.0448,-1.70736 -0.45367,-2.49544 -0.40886,-0.78809 -0.62438,-1.62544 -0.47892,-1.86079 0.43148,-0.69815 -0.91765,-3.24014 -1.9847,-3.7395 -0.54337,-0.25429 -2.2291,-2.51307 -3.74606,-5.01951 -3.51503,-5.8078 -6.00922,-8.38936 -7.75065,-8.02215 -0.69623,0.14681 -1.72475,0.98413 -2.2856,1.86071 -0.83416,1.30376 -1.46535,1.65753 -3.46855,1.94407 -1.34685,0.19266 -2.77122,0.47401 -3.16526,0.62521 -1.20808,0.46359 -1.66501,2.54961 -1.24172,5.66884 0.29168,2.14941 0.19173,3.69353 -0.36602,5.65413 -0.52866,1.85838 -0.60435,2.86013 -0.24338,3.2211 0.28815,0.28815 3.58575,1.29546 7.32801,2.23849 3.74225,0.94302 7.81364,2.18513 9.04753,2.76025 3.21926,1.5005 5.93701,1.12791 8.78291,-1.20409 z m -4.76726,-0.01238 c 0,-0.11174 0.7975,-0.6737 1.77223,-1.2488 1.38785,-0.81885 1.77223,-0.88847 1.77223,-0.321 0,0.39854 -0.44074,0.96051 -0.97942,1.2488 -0.96546,0.51669 -2.56504,0.71687 -2.56504,0.321 z m 38.25215,-0.59433 c 1.83018,-1.55258 4.85237,-3.62584 6.71597,-4.60723 3.69374,-1.94516 5.66694,-3.52354 5.66694,-4.53305 0,-0.35582 -0.9907,-1.32856 -2.20156,-2.16165 -2.47805,-1.70494 -3.87464,-3.55473 -3.87464,-5.13197 0,-0.58509 -0.25226,-1.53514 -0.56056,-2.11122 -0.535,-0.99964 -0.64778,-0.94616 -2.47257,1.17258 -1.90477,2.2116 -1.92483,2.21999 -5.30721,2.21999 -2.95725,0 -3.52006,-0.15419 -4.36317,-1.19538 -0.53238,-0.65747 -0.96796,-1.93975 -0.96796,-2.84952 0,-3.45504 -2.73108,-3.01731 -3.12233,0.50045 -0.0929,0.83547 -0.39681,1.40512 -0.6753,1.26587 -0.6075,-0.30375 -0.35684,-3.549 0.33987,-4.40017 0.27126,-0.3314 0.97399,-0.67318 1.56163,-0.75952 3.17624,-0.46669 1.93717,-12.99183 -1.84019,-18.60162 -0.6701,-0.99516 -1.49644,-2.72082 -1.83631,-3.83479 -0.33987,-1.11397 -1.43588,-3.62041 -2.43557,-5.56986 -1.43565,-2.7996 -1.84826,-4.2361 -1.96345,-6.83573 -0.0802,-1.8102 -0.18092,-3.63307 -0.22379,-4.0508 -0.0429,-0.41774 0.0834,-1.21525 0.28064,-1.77223 0.19723,-0.55699 0.01,-0.41468 -0.41604,0.31623 -1.37483,2.35858 -4.01694,2.35564 -4.95882,-0.0055 -0.30243,-0.75814 -0.6283,-1.05306 -0.76294,-0.69046 -0.30565,0.82316 -4.0215,0.82735 -4.52968,0.0051 -0.26178,-0.42356 -0.48395,-0.21762 -0.68285,0.63294 -0.40964,1.75176 -2.64166,2.00024 -3.75027,0.41749 -0.44466,-0.63485 -0.80123,-0.93269 -0.79238,-0.66185 0.009,0.27084 0.33604,0.91476 0.72707,1.43094 0.51811,0.68392 0.57937,1.28465 0.22583,2.21453 -0.50091,1.31751 -0.12923,1.85301 2.23906,3.22592 1.29861,0.75281 0.67007,1.17733 -0.67631,0.45677 -2.02342,-1.0829 -1.56278,-0.16962 0.87675,1.7383 2.87717,2.25018 4.35818,2.21588 8.27077,-0.19157 1.38257,-0.8507 2.73819,-1.54673 3.0125,-1.54673 1.1063,0 0.34252,0.85473 -2.37548,2.65834 -4.10173,2.72183 -8.04425,2.60346 -10.40622,-0.31244 -0.87162,-1.07604 -0.87489,-1.07401 -0.88611,0.54819 -0.006,0.89551 -0.7946,3.06016 -1.752,4.81033 -0.95741,1.75016 -1.83162,4.12002 -1.94268,5.26635 -0.11106,1.14632 -0.70701,2.79355 -1.32434,3.66051 -2.49348,3.50178 -4.25483,8.30502 -4.49749,12.26483 l -0.23482,3.83176 4.62297,3.68663 c 2.54264,2.02765 4.96202,4.17068 5.37639,4.76229 1.15414,1.64777 0.93027,3.68343 -0.55671,5.06224 l -1.31012,1.21481 1.39239,1.09526 c 1.86083,1.46373 3.13924,1.72983 7.18478,1.49553 4.41984,-0.25598 7.58204,-1.78762 11.58703,-5.61227 l 3.11297,-2.9728 0.36012,2.61838 c 0.43637,3.17277 -0.16511,11.23062 -0.80862,10.83292 -1.00212,-0.61935 -0.38626,1.41459 0.78211,2.58294 1.02002,1.02002 1.74508,1.24286 4.04398,1.24286 2.66438,0 2.96357,-0.1378 6.12872,-2.82289 z M 228.24959,72.67527 c 0,-0.34188 -1.31018,-1.7529 -2.91152,-3.1356 -3.41897,-2.95218 -4.86738,-3.8754 -3.37319,-2.15008 0.58156,0.67152 1.58753,2.13237 2.2355,3.24634 1.86488,3.20608 2.57363,3.88555 3.36654,3.22749 0.37547,-0.31161 0.68267,-0.84628 0.68267,-1.18815 z m 35.74621,-6.9738 c 1.79913,-1.89409 2.11923,-2.58403 2.41602,-5.20728 0.18817,-1.66314 0.12157,-4.16306 -0.14799,-5.55538 -1.03198,-5.33037 -4.04939,-12.31935 -6.12099,-14.17756 -1.8981,-1.70258 -5.11265,-6.78659 -6.9024,-10.91658 -1.37361,-3.16972 -1.70065,-4.58373 -1.70876,-7.38822 -0.0172,-5.93558 -0.85931,-10.13195 -2.66144,-13.26178 -1.38093,-2.39831 -2.12525,-3.09636 -4.56728,-4.28331 -7.06479,-3.43386 -12.9721,-1.7826 -15.86761,4.43546 -0.8315,1.78565 -1.17241,3.38909 -1.13478,5.33738 0.0296,1.53171 0.16581,2.32921 0.30272,1.77222 0.41056,-1.67027 1.18821,-2.27857 2.91294,-2.27857 1.81775,0 4.26573,1.89109 4.39304,3.39368 0.0424,0.50066 0.0998,1.24904 0.1275,1.66306 0.0277,0.41402 0.44791,0.82933 0.9338,0.9229 0.61797,0.11901 0.79402,-0.06287 0.58587,-0.6053 -0.47285,-1.23222 0.74467,-4.20404 2.0811,-5.0797 1.56029,-1.02234 4.25399,-1.02741 5.70549,-0.01073 2.18765,1.53229 2.68379,3.34599 2.50414,9.15421 -0.16223,5.24505 -0.12362,5.4663 1.52345,8.73159 0.92943,1.8426 2.04876,4.5789 2.48739,6.08066 0.43863,1.50177 1.46233,3.7788 2.2749,5.06008 2.61764,4.12759 3.48615,8.16648 3.43982,15.99639 -0.0356,6.02369 0.0799,7.07314 0.87595,7.9527 1.45116,1.60353 4.02277,0.92168 6.54712,-1.73592 z m -0.47045,-2.23884 c -0.18567,-0.18566 -0.33757,-0.57302 -0.33757,-0.8608 0,-0.31728 0.23584,-0.28738 0.59918,0.07596 0.32955,0.32955 0.48145,0.71691 0.33757,0.86079 -0.14389,0.14389 -0.41353,0.10971 -0.59918,-0.07595 z m 1.47666,-1.11353 c -0.21813,-0.35292 -0.25984,-0.77842 -0.0927,-0.94556 0.45317,-0.45316 0.94726,0.21333 0.7025,0.94761 -0.17151,0.51454 -0.29078,0.51414 -0.60979,-0.002 z m -16.2726,-31.17924 c -0.95907,-1.46371 -0.79598,-3.56008 0.28055,-3.60642 2.27777,-0.09805 4.32107,2.26001 3.66467,4.2292 -0.37767,1.13301 -3.07364,0.70744 -3.94522,-0.62278 z m 1.89243,-1.40486 c -0.36333,-0.36334 -0.59918,-0.39323 -0.59918,-0.07595 0,0.67587 0.59882,1.27468 0.93675,0.93675 0.14389,-0.14389 -0.008,-0.53125 -0.33757,-0.8608 z M 242.25862,9.78947 c -0.18566,-0.18566 -0.33757,-1.21102 -0.33757,-2.27857 0,-1.86733 0.0649,-1.94101 1.71023,-1.94101 0.94062,0 1.93752,0.28482 2.21531,0.63293 0.70013,0.87735 0.45607,2.89828 -0.41671,3.4506 -0.85192,0.53913 -2.68935,0.61796 -3.17126,0.13605 z m 2.19419,-2.22407 c 0,-0.26205 -0.22786,-0.47646 -0.50635,-0.47646 -0.2785,0 -0.50636,0.35523 -0.50636,0.78941 0,0.43417 0.22786,0.64858 0.50636,0.47646 0.27849,-0.17211 0.50635,-0.52735 0.50635,-0.78941 z m -25.2014,56.03653 c -1.4474,-1.6485 -1.49765,-1.86664 -1.25383,-5.44327 0.26127,-3.83254 0.7429,-5.3691 3.86604,-12.33391 0.99905,-2.22794 1.81923,-4.47846 1.82263,-5.00117 0.003,-0.5227 0.91761,-2.60147 2.03158,-4.61949 2.49099,-4.51256 2.66747,-5.56383 0.26397,-1.57242 -0.96879,1.60884 -2.6444,3.98794 -3.72358,5.2869 -2.38743,2.87364 -2.75642,3.55967 -4.44899,8.27163 -0.73311,2.04092 -2.10181,5.24311 -3.04154,7.11599 -2.11047,4.2061 -2.25529,5.92632 -0.47019,5.58508 0.95385,-0.18234 1.79742,0.29651 3.67104,2.08389 2.89319,2.75999 3.35319,2.98473 1.28287,0.62677 z m -3.66059,-4.94963 c 0,-1.84376 0.22104,-1.77695 0.69794,0.21098 0.19832,0.82664 0.12438,1.39246 -0.18194,1.39246 -0.2838,0 -0.516,-0.72155 -0.516,-1.60344 z m 12.50146,-30.17005 c -0.12736,-0.48736 -0.23157,-0.08861 -0.23157,0.88611 0,0.97473 0.10421,1.37348 0.23157,0.88611 0.12736,-0.48736 0.12736,-1.28486 0,-1.77222 z m -0.54947,-5.05296 c -0.16826,-0.16825 -0.28793,0.13081 -0.26595,0.66459 0.0243,0.58987 0.14428,0.70985 0.30592,0.30592 0.14627,-0.36553 0.12828,-0.80225 -0.04,-0.97051 z m 3.30034,-3.01067 c -0.44131,-0.75891 -0.54012,-0.78078 -0.55276,-0.12237 -0.0164,0.85273 0.51607,1.62052 0.87493,1.26166 0.11836,-0.11836 -0.0266,-0.63104 -0.32217,-1.13929 z m 11.78161,0.93845 c 0.14141,-0.22881 -0.18693,-0.79623 -0.72965,-1.26092 -0.92625,-0.79308 -0.98676,-0.78826 -0.98676,0.07847 0,1.40279 1.10833,2.16634 1.71641,1.18245 z m -9.5121,-2.48493 c -0.16825,-0.16826 -0.28793,0.1308 -0.26594,0.66458 0.0243,0.58987 0.14428,0.70985 0.30592,0.30592 0.14627,-0.36552 0.12828,-0.80225 -0.04,-0.9705 z m 10.79979,-1.43921 c -0.63537,-0.67633 -1.61024,-1.22968 -2.16638,-1.22968 -1.09846,0 -2.86312,1.35635 -2.86312,2.20066 0,0.28855 0.28482,0.1684 0.63294,-0.26702 1.42489,-1.78222 4.87944,-1.08353 4.97689,1.00658 0.0272,0.58292 0.1256,0.64319 0.30744,0.18827 0.1471,-0.36802 -0.25239,-1.22249 -0.88777,-1.89881 z m -12.94304,-0.21698 c 0.34215,0 0.9415,0.28482 1.33188,0.63294 0.60384,0.53845 0.6097,0.50066 0.0393,-0.25318 -0.36879,-0.48736 -1.05276,-0.88611 -1.51995,-0.88611 -0.90736,0 -2.06467,0.92851 -2.06467,1.65649 0,0.24268 0.35806,0.08318 0.79569,-0.35445 0.43763,-0.43763 1.07564,-0.79569 1.41778,-0.79569 z"
       inkscape:connector-curvature="0" />
  </g>
</svg>
